﻿{
  "dependencies": {
    "HtmlAgilityPack": "1.4.9.5",
    "Microsoft.ApplicationInsights": "2.1.0",
    "Microsoft.ApplicationInsights.PersistenceChannel": "1.2.3",
    "Microsoft.ApplicationInsights.WindowsApps": "1.1.1",
    "Microsoft.NETCore.UniversalWindowsPlatform": "5.2.2",
    "Telegram.Bot": "10.3.1"
  },
  "frameworks": {
    "uap10.0": {}
  },
  "runtimes": {
    "win10-arm": {},
    "win10-arm-aot": {},
    "win10-x86": {},
    "win10-x86-aot": {},
    "win10-x64": {},
    "win10-x64-aot": {}
  }
}